(Device File: WQFN_32_LM8333FLQ8X)

PACKAGE WQFN_32_LM8333FLQ8X
CLASS IC
PINCOUNT 33
PINORDER WQFN_32_LM8333FLQ8X '1' '2' '3' '4' '5' '6' '7' '8' '9' '10' '11' ,
'12' '13' '14' '15' '16' '17' '18' '19' '20' '21' '22' '23' '24' '25' '26' ,
'27' '28' '29' '30' '31' '32' '33' 
FUNCTION g1 WQFN_32_LM8333FLQ8X '1' '2' '3' '4' '5' '6' '7' '8' '9' '10' ,
'11' '12' '13' '14' '15' '16' '17' '18' '19' '20' '21' '22' '23' '24' '25' ,
'26' '27' '28' '29' '30' '31' '32' '33' 

END
