;LEADER: 12 
;HEADER: 
;CODE  : ASCII 
;FILE  : panel-1-2.drl for  ... layers TOP and BOTTOM
;   Holesize 1. = 8.000000 Tolerance = +0.000000/-0.000000 PLATED MILS Quantity = 53
;   Holesize 2. = 12.000000 Tolerance = +0.000000/-0.000000 PLATED MILS Quantity = 223
;   Holesize 3. = 35.433000 Tolerance = +0.000000/-0.000000 PLATED MILS Quantity = 10
;   Holesize 4. = 102.362000 Tolerance = +0.000000/-0.000000 NON_PLATED MILS Quantity = 9
%
G90
X0794928Y0045472
X0778800Y0045500
X0629310Y0076390
X0652150Y0105350
X0664550Y0130150
X0640850Y0105350
X0631279Y0078979
X0604110Y0053810
X0619110Y0067590
X1043435Y0031693
X1043435Y0090748
X0620979Y0065621
X0984380Y0031693
X0984380Y0090748
X0618647Y0063653
X0925325Y0031693
X0925325Y0090748
X0620616Y0061684
X0866270Y0031693
X0866270Y0090748
X0639153Y0082100
X0637184Y0075984
X0866270Y0118307
X0670353Y0116653
X0635216Y0046184
X0745900Y0041800
X0637184Y0044116
X0746400Y0100900
X0953400Y0031900
X0953900Y0047200
X0896500Y0035400
X0897000Y0045900
X1240600Y0076500
X1146700Y0072900
X1014400Y0072900
X0846200Y0073400
X0884700Y0073200
X1129800Y0082400
X1116400Y0081400
X0794728Y0104528
X0778800Y0104500
X1279656Y0031693
X0653453Y0057747
X1279656Y0090748
X1220601Y0031693
X0651484Y0059716
X1220601Y0090748
X1161546Y0031693
X0653716Y0061684
X1161546Y0090748
X1102491Y0031693
X0651753Y0063653
X1102491Y0090748
M00
X0660510Y0130590
X0641500Y0029400
X0646017Y0049283
X0554000Y0105600
X0560850Y0106350
X0559900Y0122500
X0577350Y0122050
X0033600Y0134900
X0058600Y0134900
X0108600Y0134900
X0083600Y0134900
X0158600Y0134900
R02X0025000
X0258600Y0134900
R02X0025000
X0358600Y0134900
R02X0025000
X0458600Y0134900
X0433600Y0134900
X0483600Y0134900
X0508600Y0134900
X0133600Y0134900
R02X0100000
X0033600Y0104900
R19X0025000
X0033600Y0074900
R19X0025000
X0033600Y0044900
R19X0025000
X0033600Y0014900
R19X0025000
X1332800Y0014600
R08X0025000
X1332800Y0044600
R08X0025000
X1332800Y0074600
R08X0025000
X1332800Y0104600
R08X0025000
X1332800Y0134600
R08X0025000
X0641500Y0066100
X0631100Y0066100
X0631100Y0060500
X0631100Y0054900
X0636300Y0054900
X0641500Y0054900
X0641500Y0060500
X0636300Y0066100
X0636300Y0060500
X0656000Y0116400
X0668384Y0132616
X1000300Y0015600
X0959200Y0013400
X0908000Y0013200
X0863600Y0013900
X0818900Y0013900
X0745200Y0014400
X0722700Y0013900
X0621450Y0035650
X1250400Y0102100
X1133800Y0099700
X1013600Y0101000
X0955200Y0101700
X0894600Y0099100
X1193000Y0101700
X0691100Y0079400
X0691100Y0072900
X0671300Y0041900
X0578300Y0084500
X0599700Y0083900
X0620000Y0083600
X0671300Y0075300
X0705200Y0134900
X0813400Y0132400
R11X0043800
X0704400Y0113300
X0729600Y0114000
X0753300Y0113100
X0729600Y0133600
X0754400Y0133300
X0640500Y0014900
X0658000Y0019000
X0659200Y0048500
X0677300Y0063500
X0712700Y0057800
X0735100Y0060000
X0735700Y0071600
X0769000Y0066300
X0823000Y0057500
X0667000Y0095300
X0769000Y0077800
X0769500Y0089300
X0529200Y0096800
X0528900Y0110100
X0568900Y0104600
X0584900Y0107200
X0612400Y0106200
X0819800Y0096700
X0550700Y0136000
X0566300Y0135800
X0581900Y0134500
M00
X0630900Y0127900
X0630900Y0137900
X0620900Y0127900
X0620900Y0137900
X0610900Y0127900
X0610900Y0137900
X0600900Y0127900
X0600900Y0137900
X0590900Y0127900
X0590900Y0137900
M00
X0009449Y0016142
R02Y0058858
X0787598Y0016142
R02Y0058858
X1565748Y0016142
R02Y0058858
M30
